{
   "meta" : {
      "pagination" : {
         "current_page" : 1,
         "total" : 8,
         "total_pages" : 2,
         "per_page" : 5,
         "count" : 5,
         "links" : {
            "next_page" : "https://dummy.tld/api/v1/components?per_page=5&page=2",
            "previous_page" : null
         }
      }
   },
   "data" : [
      {
         "description" : "",
         "status" : 1,
         "updated_at" : "2017-05-08 01:42:09",
         "name" : "Private Server",
         "order" : 3,
         "tags" : {
            "" : ""
         },
         "deleted_at" : null,
         "enabled" : true,
         "id" : 4,
         "group_id" : 2,
         "created_at" : "2017-02-20 02:32:17",
         "link" : "",
         "status_name" : "Operational"
      },
      {
         "description" : "",
         "status" : 1,
         "updated_at" : "2017-05-08 01:42:10",
         "order" : 5,
         "name" : "Mods Repository",
         "enabled" : true,
         "tags" : {
            "" : ""
         },
         "deleted_at" : null,
         "created_at" : "2017-02-20 02:34:10",
         "id" : 7,
         "group_id" : 2,
         "status_name" : "Operational",
         "link" : ""
      },
      {
         "group_id" : 2,
         "id" : 2,
         "created_at" : "2017-02-20 02:26:28",
         "status_name" : "Operational",
         "link" : "",
         "order" : 4,
         "name" : "TeamSpeak Server",
         "enabled" : true,
         "tags" : {
            "" : ""
         },
         "deleted_at" : null,
         "status" : 1,
         "description" : "ts.dummy.tld",
         "updated_at" : "2017-05-08 21:10:43"
      },
      {
         "updated_at" : "2017-03-15 20:27:09",
         "status" : 4,
         "description" : "",
         "link" : "",
         "status_name" : "Major Outage",
         "group_id" : 2,
         "id" : 6,
         "created_at" : "2017-02-20 02:32:58",
         "enabled" : true,
         "tags" : {
            "" : ""
         },
         "deleted_at" : null,
         "name" : "Development Server",
         "order" : 7
      },
      {
         "tags" : {
            "" : ""
         },
         "deleted_at" : null,
         "enabled" : true,
         "name" : "Website",
         "order" : 1,
         "link" : "http://dummy.tld",
         "status_name" : "Operational",
         "id" : 1,
         "group_id" : 1,
         "created_at" : "2017-02-20 02:24:48",
         "updated_at" : "2017-03-22 08:22:30",
         "status" : 1,
         "description" : "Enjin community portal"
      }
   ]
}
